{
  "children": [
    {
      "id": 2,
      "username": "alice",
      "name": "Alice",
      "baseAmount": 30
    },
    {
      "id": 3,
      "username": "robert",
      "name": "Bob",
      "baseAmount": 30
    }
  ],
  "users": [
    {
      "id": 1,
      "username": "dad@home",
      "password": "s3cr3t",
      "name": "Daddy",
      "roles": [ "parent" ]
    },
    {
      "id": 2,
      "username": "alice",
      "password": "123456",
      "name": "Alice",
      "roles": [ "child" ]
    }
  ],
  "activity-templates": [
    {
      "id": 1,
      "description": "Spülmaschine ausräumen",
      "amount": 10
    },
    {
      "id": 2,
      "description": "Müllrausbringen",
      "amount": 10
    },
    {
      "id": 3,
      "description": "Essen kochen",
      "amount": 30
    },
    {
      "id": 4,
      "description": "Staubsaugen",
      "amount": 20
    },
    {
      "id": 5,
      "description": "Handyzeit",
      "amount": -15
    },
    {
      "id": 6,
      "description": "Wäsche zusammenlegen",
      "amount": 10
    }
  ],
  "activities": [
    {
      "id": 1,
      "child_id": 2,
      "user_id": null,
      "description": null,
      "amount": 20,
      "timestamp": "2023-12-01 00:00:00"
    },
    {
      "id": 2,
      "child_id": 3,
      "user_id": null,
      "description": null,
      "amount": 20,
      "timestamp": "2023-12-01 00:00:00"
    },
    {
      "id": 3,
      "child_id": 2,
      "user_id": 1,
      "description": "Spülmaschine ausräumen",
      "amount": 10,
      "timestamp": "2023-12-11 06:00:00"
    },
    {
      "id": 4,
      "child_id": 2,
      "user_id": 1,
      "description": "Essen kochen",
      "amount": 30,
      "timestamp": "2023-12-12 06:00:00"
    },
    {
      "id": 5,
      "child_id": 3,
      "user_id": 1,
      "description": "Müllrausbringen",
      "amount": 10,
      "timestamp": "2023-12-13 06:00:00"
    },
    {
      "id": 6,
      "child_id": 2,
      "user_id": 1,
      "description": "Handyzeit",
      "amount": -15,
      "timestamp": "2023-12-14 06:00:00"
    },
    {
      "id": 7,
      "child_id": 2,
      "user_id": 1,
      "description": "Staubsaugen",
      "amount": 20,
      "timestamp": "2023-12-15 06:00:00"
    },
    {
      "id": 8,
      "child_id": 2,
      "user_id": 1,
      "description": "Handyzeit",
      "amount": -15,
      "timestamp": "2023-12-15 07:00:00"
    }
  ]
}